{
  "lengthUnit": "Meter",
  "exportUnit": "Always Meters",
  "maxVelocity": 2.0,
  "maxAcceleration": 3.3,
  "trackWidth": 0.5842,
  "gameName": "Charged Up",
  "outputDir": "../src/main/deploy/paths"
}