[
{
"acceleration": 1.9999999999999996,
"curvature": 0.0,
"pose": {
"rotation": {
"radians": 0.0
},
"translation": {
"x": 1.6656608416564034,
"y": 5.044847914614817
}
},
"time": 0.0,
"velocity": 0.0
},
{
"acceleration": 2.0000000000000013,
"curvature": -0.16660137111388498,
"pose": {
"rotation": {
"radians": -0.005899881277810347
},
"translation": {
"x": 1.7292500195518943,
"y": 5.044716995489293
}
},
"time": 0.25216921434876377,
"velocity": 0.5043384286975274
},
{
"acceleration": 2.000000000000001,
"curvature": -0.21330736825177832,
"pose": {
"rotation": {
"radians": -0.01970598503623838
},
"translation": {
"x": 1.7983575821796733,
"y": 5.04385010872182
}
},
"time": 0.36428328564787016,
"velocity": 0.7285665712957403
},
{
"acceleration": 2.0,
"curvature": -0.18255661983133983,
"pose": {
"rotation": {
"radians": -0.03562473140690841
},
"translation": {
"x": 1.8775025091499318,
"y": 5.041643197810647
}
},
"time": 0.46030207735423384,
"velocity": 0.9206041547084678
},
{
"acceleration": 2.000000000000001,
"curvature": -0.1335278793249198,
"pose": {
"rotation": {
"radians": -0.050220585060021784
},
"translation": {
"x": 1.9701803399188764,
"y": 5.037627334739099
}
},
"time": 0.5519445614646659,
"velocity": 1.1038891229293317
},
{
"acceleration": 2.0,
"curvature": -0.092071059162934,
"pose": {
"rotation": {
"radians": -0.0623397477424437
},
"translation": {
"x": 2.0789366757658647,
"y": 5.031459067940936
}
},
"time": 0.6430971273826593,
"velocity": 1.2861942547653187
},
{
"acceleration": 1.999999999999997,
"curvature": -0.0626366553870964,
"pose": {
"rotation": {
"radians": -0.07198309815723311
},
"translation": {
"x": 2.205440681770538,
"y": 5.022910770265694
}
},
"time": 0.7350961915287744,
"velocity": 1.4701923830575487
},
{
"acceleration": 2.000000000000003,
"curvature": -0.051768118273435505,
"pose": {
"rotation": {
"radians": -0.07599282576568338
},
"translation": {
"x": 2.27564811302322,
"y": 5.01770227179794
}
},
"time": 0.7815156934564186,
"velocity": 1.563031386912837
},
{
"acceleration": 2.0,
"curvature": -0.04292607614574635,
"pose": {
"rotation": {
"radians": -0.07953543095920358
},
"translation": {
"x": 2.3505585887899563,
"y": 5.011860986944049
}
},
"time": 0.8281936079891989,
"velocity": 1.6563872159783979
},
{
"acceleration": 2.0,
"curvature": -0.035737375079526734,
"pose": {
"rotation": {
"radians": -0.08266420954438795
},
"translation": {
"x": 2.4301669883737236,
"y": 5.005386739755474
}
},
"time": 0.8750862134282307,
"velocity": 1.7501724268564613
},
{
"acceleration": 2.0,
"curvature": -0.029882351073645824,
"pose": {
"rotation": {
"radians": -0.0854279129161461
},
"translation": {
"x": 2.5144271954357307,
"y": 4.9982847835531565
}
},
"time": 0.9221360290478017,
"velocity": 1.8442720580956034
},
{
"acceleration": 2.000000000000007,
"curvature": -0.025096749137813807,
"pose": {
"rotation": {
"radians": -0.08787003605544726
},
"translation": {
"x": 2.603254394932201,
"y": 4.9905654993014466
}
},
"time": 0.9692764498866311,
"velocity": 1.9385528997732622
},
{
"acceleration": 2.0,
"curvature": -0.02116653642154007,
"pose": {
"rotation": {
"radians": -0.09002876864615283
},
"translation": {
"x": 2.69652737005116,
"y": 4.982244093982014
}
},
"time": 1.0164350817137273,
"velocity": 2.032870163427455
},
{
"acceleration": 2.0000000000000044,
"curvature": -0.017920328542712558,
"pose": {
"rotation": {
"radians": -0.0919372909852231
},
"translation": {
"x": 2.7940907991492194,
"y": 4.973340298967774
}
},
"time": 1.0635361532587289,
"velocity": 2.127072306517458
},
{
"acceleration": 1.4608032594571807,
"curvature": -0.015221671891796202,
"pose": {
"rotation": {
"radians": -0.09362422644029376
},
"translation": {
"x": 2.8957575526883628,
"y": 4.9638780683968005
}
},
"time": 1.1105022661845056,
"velocity": 2.2210045323690117
},
{
"acceleration": 0.031580431641487154,
"curvature": -0.012962122137940154,
"pose": {
"rotation": {
"radians": -0.09511414317538101
},
"translation": {
"x": 3.0013109901727324,
"y": 4.953885277546243
}
},
"time": 1.1575130638630906,
"velocity": 2.2896780588475707
},
{
"acceleration": 0.026115836420890066,
"curvature": -0.011055411297680933,
"pose": {
"rotation": {
"radians": -0.09642804694963686
},
"translation": {
"x": 3.1105072570854126,
"y": 4.943393421206242
}
},
"time": 1.2054075396066717,
"velocity": 2.2911905870647957
},
{
"acceleration": 0.021867807769978067,
"curvature": -0.009432696901864367,
"pose": {
"rotation": {
"radians": -0.09758383582082944
},
"translation": {
"x": 3.2230775818252173,
"y": 4.93243731205385
}
},
"time": 1.2547576148864825,
"velocity": 2.292479405558162
},
{
"acceleration": 0.018557439560193706,
"curvature": -0.008038766242928123,
"pose": {
"rotation": {
"radians": -0.0985967042749166
},
"translation": {
"x": 3.3387305726434713,
"y": 4.9210547790269485
}
},
"time": 1.30543797854888,
"velocity": 2.2935876740084438
},
{
"acceleration": 0.015977539444927594,
"curvature": -0.006829034589628042,
"pose": {
"rotation": {
"radians": -0.09947949354164867
},
"translation": {
"x": 3.457154514580804,
"y": 4.909286365698161
}
},
"time": 1.357314033365757,
"velocity": 2.2945503607603293
},
{
"acceleration": 0.013974183244434429,
"curvature": -0.00576718090852617,
"pose": {
"rotation": {
"radians": -0.10024298967096051
},
"translation": {
"x": 3.5780196664039243,
"y": 4.897175028648777
}
},
"time": 1.410242950695269,
"velocity": 2.295396034624739
},
{
"acceleration": 0.012433341992267992,
"curvature": -0.004823284143083244,
"pose": {
"rotation": {
"radians": -0.10089617318198799
},
"translation": {
"x": 3.7009805575424144,
"y": 4.884765835842662
}
},
"time": 1.4640747175147566,
"velocity": 2.296148289598646
},
{
"acceleration": 0.011271253009584021,
"curvature": -0.003972346093266056,
"pose": {
"rotation": {
"radians": -0.10144642486575278
},
"translation": {
"x": 3.8256782850255124,
"y": 4.872105665000178
}
},
"time": 1.5186531765550206,
"velocity": 2.2968268822453046
},
{
"acceleration": 0.010602667180232585,
"curvature": -0.00319310841003697,
"pose": {
"rotation": {
"radians": -0.1018996922812244
},
"translation": {
"x": 3.951742810418895,
"y": 4.859242901972103
}
},
"time": 1.573817060260515,
"velocity": 2.2974486483355405
},
{
"acceleration": 0.010253007010912696,
"curvature": -0.002824516024342526,
"pose": {
"rotation": {
"radians": -0.10209145656893305
},
"translation": {
"x": 4.015169505729688,
"y": 4.852751007117954
}
},
"time": 1.6015669640443446,
"velocity": 2.297742871329644
},
{
"acceleration": 0.009970216953866507,
"curvature": -0.0024670892986830796,
"pose": {
"rotation": {
"radians": -0.10226062101439685
},
"translation": {
"x": 4.078795256761468,
"y": 4.846227139113546
}
},
"time": 1.6294009606836894,
"velocity": 2.298028253492329
},
{
"acceleration": 0.009751037721976871,
"curvature": -0.0021188201178222324,
"pose": {
"rotation": {
"radians": -0.102407579184993
},
"translation": {
"x": 4.1425716997154804,
"y": 4.839677636034041
}
},
"time": 1.6572979114143618,
"velocity": 2.298306392143465
},
{
"acceleration": 0.009593068940525059,
"curvature": -0.0017777797873304382,
"pose": {
"rotation": {
"radians": -0.10253265408643278
},
"translation": {
"x": 4.206450205502147,
"y": 4.833108873657862
}
},
"time": 1.6852365500841782,
"velocity": 2.298578822863035
},
{
"acceleration": 0.009494728115149838,
"curvature": -0.0014420992462555182,
"pose": {
"rotation": {
"radians": -0.10263609970213762
},
"translation": {
"x": 4.270381951520338,
"y": 4.8265272560408725
}
},
"time": 1.7131955148908142,
"velocity": 2.298847035139931
},
{
"acceleration": 0.009455226142864249,
"curvature": -0.001109950028797144,
"pose": {
"rotation": {
"radians": -0.10271810211487203
},
"translation": {
"x": 4.334317993436648,
"y": 4.819939206090573
}
},
"time": 1.7411533800557542,
"velocity": 2.299112487468352
},
{
"acceleration": 0.009474558914875435,
"curvature": -0.0007795256881314382,
"pose": {
"rotation": {
"radians": -0.10277878021624352
},
"translation": {
"x": 4.398209336964668,
"y": 4.813351156140272
}
},
"time": 1.7690886874349503,
"velocity": 2.2993766221169927
},
{
"acceleration": 0.009553514994754701,
"curvature": -0.0004490234011487416,
"pose": {
"rotation": {
"radians": -0.10281818600625686
},
"translation": {
"x": 4.462007009644266,
"y": 4.806769538523284
}
},
"time": 1.7969799780669953,
"velocity": 2.299640879793298
},
{
"acceleration": -0.0029665643329938314,
"curvature": -0.000116625473035146,
"pose": {
"rotation": {
"radians": -0.10283630448162638
},
"translation": {
"x": 4.525662132620854,
"y": 4.800200776147104
}
},
"time": 1.8248058236583584,
"velocity": 2.2999067144263967
},
{
"acceleration": -0.01002091981133866,
"curvature": 0.00021951954477545613,
"pose": {
"rotation": {
"radians": -0.10283305310795895
},
"translation": {
"x": 4.589125992424669,
"y": 4.793651273067599
}
},
"time": 1.8525469758828514,
"velocity": 2.2998244185136514
},
{
"acceleration": -0.0106914725216207,
"curvature": 0.0009107438102094884,
"pose": {
"rotation": {
"radians": -0.10276176686797078
},
"translation": {
"x": 4.715286326234674,
"y": 4.780635510209041
}
},
"time": 1.9077012760721401,
"velocity": 2.299271721694204
},
{
"acceleration": -0.01167988313716308,
"curvature": 0.0016409073129751023,
"pose": {
"rotation": {
"radians": -0.10260226912645355
},
"translation": {
"x": 4.840104338625041,
"y": 4.767772747180967
}
},
"time": 1.9622815823048743,
"velocity": 2.298688177849895
},
{
"acceleration": -0.013049120692905392,
"curvature": 0.002428195456486659,
"pose": {
"rotation": {
"radians": -0.10235131316520212
},
"translation": {
"x": 4.963203597177252,
"y": 4.755112576338483
}
},
"time": 2.0161233760707558,
"velocity": 2.2980593119908144
},
{
"acceleration": -0.014888721241998464,
"curvature": 0.0032935937770243854,
"pose": {
"rotation": {
"radians": -0.10200436453804679
},
"translation": {
"x": 5.0842172064403,
"y": 4.742703383532368
}
},
"time": 2.069066516291041,
"velocity": 2.2973684505642185
},
{
"acceleration": -0.017323614090425207,
"curvature": 0.0042619624892795294,
"pose": {
"rotation": {
"radians": -0.10155546546040835
},
"translation": {
"x": 5.202790104867473,
"y": 4.730592046482983
}
},
"time": 2.1209562682747696,
"velocity": 2.2965958785116163
},
{
"acceleration": -0.020526909369547652,
"curvature": 0.00536339571847516,
"pose": {
"rotation": {
"radians": -0.1009970571142805
},
"translation": {
"x": 5.318581361753145,
"y": 4.718823633154196
}
},
"time": 2.171644339213788,
"velocity": 2.2957177779316806
},
{
"acceleration": -0.03994471271397405,
"curvature": 0.006634975157513568,
"pose": {
"rotation": {
"radians": -0.10031975259849497
},
"translation": {
"x": 5.4312664741695444,
"y": 4.707441100127295
}
},
"time": 2.2209899213644038,
"velocity": 2.2947048656390874
},
{
"acceleration": -2.0,
"curvature": 0.00812306547050726,
"pose": {
"rotation": {
"radians": -0.09951205141830617
},
"translation": {
"x": 5.540539663903566,
"y": 4.696484990974904
}
},
"time": 2.268868343624306,
"velocity": 2.2927923758167172
},
{
"acceleration": -2.0,
"curvature": 0.009886350376717389,
"pose": {
"rotation": {
"radians": -0.09855998440793379
},
"translation": {
"x": 5.646116174393529,
"y": 4.685993134634903
}
},
"time": 2.3161159217548652,
"velocity": 2.1982972195555983
},
{
"acceleration": -2.0,
"curvature": 0.011999877972312627,
"pose": {
"rotation": {
"radians": -0.09744667596052715
},
"translation": {
"x": 5.747734567665987,
"y": 4.676000343784344
}
},
"time": 2.363590091671617,
"velocity": 2.103348879722095
},
{
"acceleration": -1.999999999999993,
"curvature": 0.014560475306910703,
"pose": {
"rotation": {
"radians": -0.0961518087431335
},
"translation": {
"x": 5.845159021272495,
"y": 4.666538113213371
}
},
"time": 2.4112046485437153,
"velocity": 2.0081197659778978
},
{
"acceleration": -2.0,
"curvature": 0.017694007076953743,
"pose": {
"rotation": {
"radians": -0.09465097540800324
},
"translation": {
"x": 5.938181625226399,
"y": 4.657634318199133
}
},
"time": 2.4588710474914173,
"velocity": 1.912786968082494
},
{
"acceleration": -2.0,
"curvature": 0.021565085564718974,
"pose": {
"rotation": {
"radians": -0.09291490356110549
},
"translation": {
"x": 6.026624678939627,
"y": 4.6493129128797
}
},
"time": 2.5064989764334067,
"velocity": 1.8175311101985148
},
{
"acceleration": -2.0000000000000027,
"curvature": 0.026389963140723664,
"pose": {
"rotation": {
"radians": -0.09090854702843039
},
"translation": {
"x": 6.110342988159477,
"y": 4.641593628627989
}
},
"time": 2.5539972106082134,
"velocity": 1.7225346418489016
},
{
"acceleration": -2.0,
"curvature": 0.03245338335013894,
"pose": {
"rotation": {
"radians": -0.08859005308693982
},
"translation": {
"x": 6.189226161905389,
"y": 4.634491672425671
}
},
"time": 2.601274869231905,
"velocity": 1.627979324601518
},
{
"acceleration": -2.000000000000003,
"curvature": 0.04012995863812917,
"pose": {
"rotation": {
"radians": -0.0859096505005394
},
"translation": {
"x": 6.263200909405741,
"y": 4.628017425237097
}
},
"time": 2.648243246806929,
"velocity": 1.5340425694514706
},
{
"acceleration": -2.0,
"curvature": 0.04990979291026974,
"pose": {
"rotation": {
"radians": -0.08280857233351557
},
"translation": {
"x": 6.33223333703464,
"y": 4.622176140383207
}
},
"time": 2.6948184684980965,
"velocity": 1.4408921260691352
},
{
"acceleration": -1.9999999999999991,
"curvature": 0.062425746653601726,
"pose": {
"rotation": {
"radians": -0.07921825724099452
},
"translation": {
"x": 6.396331245248675,
"y": 4.616967641915452
}
},
"time": 2.7409253347078306,
"velocity": 1.3486783936496671
},
{
"acceleration": -1.999999999999999,
"curvature": 0.09900999551270137,
"pose": {
"rotation": {
"radians": -0.0702480928849271
},
"translation": {
"x": 6.509976957291856,
"y": 4.608419344240211
}
},
"time": 2.8315123603896484,
"velocity": 1.167504342286032
},
{
"acceleration": -1.9999999999999993,
"curvature": 0.15754664145652703,
"pose": {
"rotation": {
"radians": -0.05830792840919948
},
"translation": {
"x": 6.605121614436101,
"y": 4.602251077442046
}
},
"time": 2.91986347763835,
"velocity": 0.9908021077886285
},
{
"acceleration": -2.0000000000000004,
"curvature": 0.24082669199715206,
"pose": {
"rotation": {
"radians": -0.042903247069678366
},
"translation": {
"x": 6.683562894856584,
"y": 4.598235214370501
}
},
"time": 3.006757256916324,
"velocity": 0.8170145492326801
},
{
"acceleration": -2.0000000000000004,
"curvature": 0.31849111186048124,
"pose": {
"rotation": {
"radians": -0.024724385996593736
},
"translation": {
"x": 6.747986087980003,
"y": 4.5960283034593274
}
},
"time": 3.095237640646516,
"velocity": 0.6400537817722963
},
{
"acceleration": -2.0000000000000004,
"curvature": 2.166521298878699e-14,
"pose": {
"rotation": {
"radians": 9.379022095804514e-15
},
"translation": {
"x": 6.850398438162678,
"y": 4.595030497566331
}
},
"time": 3.4152645315326637,
"velocity": 0.0
}
]