[
{
"acceleration": 2.0,
"curvature": 0.0,
"pose": {
"rotation": {
"radians": 0.0
},
"translation": {
"x": 1.6419862407591146,
"y": 0.428300739643487
}
},
"time": 0.0,
"velocity": 0.0
},
{
"acceleration": 2.0,
"curvature": 0.15509058018458496,
"pose": {
"rotation": {
"radians": 0.005556762029110882
},
"translation": {
"x": 1.7057058196518209,
"y": 0.42842476828872034
}
},
"time": 0.2524276125981395,
"velocity": 0.504855225196279
},
{
"acceleration": 2.0,
"curvature": 0.19076257991120701,
"pose": {
"rotation": {
"radians": 0.018312440752257936
},
"translation": {
"x": 1.7756723647164219,
"y": 0.4292460294368521
}
},
"time": 0.36563788704964073,
"velocity": 0.7312757740992815
},
{
"acceleration": 1.999999999999999,
"curvature": 0.1561332498950043,
"pose": {
"rotation": {
"radians": 0.03261113614925535
},
"translation": {
"x": 1.8569903359191688,
"y": 0.4313367871421745
}
},
"time": 0.46371964464849724,
"velocity": 0.9274392892969945
},
{
"acceleration": 2.000000000000001,
"curvature": 0.10983186205564988,
"pose": {
"rotation": {
"radians": 0.04536327022295197
},
"translation": {
"x": 1.9535945749439918,
"y": 0.4351412889994295
}
},
"time": 0.558314457937884,
"velocity": 1.1166289158757678
},
{
"acceleration": 2.0000000000000018,
"curvature": 0.07347772539589331,
"pose": {
"rotation": {
"radians": 0.05571376712229451
},
"translation": {
"x": 2.0683347325287187,
"y": 0.44098491017663743
}
},
"time": 0.6531492176776375,
"velocity": 1.3062984353552747
},
{
"acceleration": 2.0000000000000018,
"curvature": 0.05989438333469466,
"pose": {
"rotation": {
"radians": 0.06002022811821634
},
"translation": {
"x": 2.1331203417770648,
"y": 0.4447428163603755
}
},
"time": 0.7010694740490708,
"velocity": 1.4021389480981414
},
{
"acceleration": 2.0,
"curvature": 0.04892460662924832,
"pose": {
"rotation": {
"radians": 0.0638141770621037
},
"translation": {
"x": 2.203059695801293,
"y": 0.44908329744791864
}
},
"time": 0.7493812904972632,
"velocity": 1.4987625809945262
},
{
"acceleration": 2.0,
"curvature": 0.04012310781184137,
"pose": {
"rotation": {
"radians": 0.06715262737449895
},
"translation": {
"x": 2.278241387538201,
"y": 0.45401766441737124
}
},
"time": 0.7980700244015329,
"velocity": 1.5961400488030655
},
{
"acceleration": 2.0,
"curvature": 0.033074297702540015,
"pose": {
"rotation": {
"radians": 0.07009072043600427
},
"translation": {
"x": 2.3587020156159952,
"y": 0.4595515132263204
}
},
"time": 0.8470929514837507,
"velocity": 1.6941859029675013
},
{
"acceleration": 2.0,
"curvature": 0.02742203927602522,
"pose": {
"rotation": {
"radians": 0.07267907136498754
},
"translation": {
"x": 2.444428822708549,
"y": 0.46568501056286404
}
},
"time": 0.8963885386286116,
"velocity": 1.792777077257223
},
{
"acceleration": 1.9999999999999978,
"curvature": 0.022874513032260957,
"pose": {
"rotation": {
"radians": 0.07496274523987893
},
"translation": {
"x": 2.535362333889659,
"y": 0.4724131795966384
}
},
"time": 0.9458829167455243,
"velocity": 1.8917658334910483
},
{
"acceleration": 2.0000000000000044,
"curvature": 0.01919847199590769,
"pose": {
"rotation": {
"radians": 0.07698112646128888
},
"translation": {
"x": 2.6313989949873022,
"y": 0.47972618572983805
}
},
"time": 0.9954944432125497,
"velocity": 1.9909888864250989
},
{
"acceleration": 2.0,
"curvature": 0.016210011382210773,
"pose": {
"rotation": {
"radians": 0.07876824059836936
},
"translation": {
"x": 2.732393810937892,
"y": 0.48760962234824756
}
},
"time": 1.0451369370357804,
"velocity": 2.0902738740715603
},
{
"acceleration": 2.0,
"curvature": 0.013765112824297607,
"pose": {
"rotation": {
"radians": 0.08035327534012714
},
"translation": {
"x": 2.8381629841405367,
"y": 0.4960447965722645
}
},
"time": 1.0947219798195282,
"velocity": 2.189443959639056
},
{
"acceleration": 0.07255066996016515,
"curvature": 0.01175126179502283,
"pose": {
"rotation": {
"radians": 0.08176116081539231
},
"translation": {
"x": 2.9484865528112945,
"y": 0.5050090150079232
}
},
"time": 1.1441605531644299,
"velocity": 2.2883211063288593
},
{
"acceleration": 0.021371911312695484,
"curvature": 0.010080503353736616,
"pose": {
"rotation": {
"radians": 0.08301313643883665
},
"translation": {
"x": 3.0631110293374313,
"y": 0.5144758694979252
}
},
"time": 1.1943821991606234,
"velocity": 2.2919647203923854
},
{
"acceleration": 0.017483907611300902,
"curvature": 0.008683894399385836,
"pose": {
"rotation": {
"radians": 0.08412726972424675
},
"translation": {
"x": 3.1817520386316773,
"y": 0.5244155228726637
}
},
"time": 1.246314861311265,
"velocity": 2.293074620642101
},
{
"acceleration": 0.014472945732781767,
"curvature": 0.0075071603826039265,
"pose": {
"rotation": {
"radians": 0.08511891372787851
},
"translation": {
"x": 3.304096956486484,
"y": 0.5347949947012447
}
},
"time": 1.2998496912755295,
"velocity": 2.294010618663183
},
{
"acceleration": 0.012648004717670884,
"curvature": 0.006507331895735568,
"pose": {
"rotation": {
"radians": 0.08600110104186888
},
"translation": {
"x": 3.4298075479282812,
"y": 0.5455784470425202
}
},
"time": 1.354840876406685,
"velocity": 2.2948065031013676
},
{
"acceleration": 0.011616167507790792,
"curvature": 0.006062769821642727,
"pose": {
"rotation": {
"radians": 0.0864046699618062
},
"translation": {
"x": 3.493812919153719,
"y": 0.5511097555198887
}
},
"time": 1.3828340763736442,
"velocity": 2.2951605612266124
},
{
"acceleration": 0.010703887253526664,
"curvature": 0.005650152862870454,
"pose": {
"rotation": {
"radians": 0.08678487781215523
},
"translation": {
"x": 3.558522605571733,
"y": 0.5567274701961074
}
},
"time": 1.411132064452295,
"velocity": 2.2954892753962675
},
{
"acceleration": 0.0098970973017539,
"curvature": 0.005266233385016208,
"pose": {
"rotation": {
"radians": 0.08714284087811593
},
"translation": {
"x": 3.6238882996748134,
"y": 0.5624264349022754
}
},
"time": 1.4397138953302453,
"velocity": 2.2957952120914844
},
{
"acceleration": 0.009183708281422603,
"curvature": 0.004908084594115136,
"pose": {
"rotation": {
"radians": 0.08747958362178684
},
"translation": {
"x": 3.6898605879739965,
"y": 0.5682013684534191
}
},
"time": 1.4685581254384301,
"velocity": 2.2960806862434593
},
{
"acceleration": 0.008553331483440786,
"curvature": 0.00457306113822558,
"pose": {
"rotation": {
"radians": 0.08779604492295112
},
"translation": {
"x": 3.756389033447437,
"y": 0.5740468735782098
}
},
"time": 1.497642849985954,
"velocity": 2.2963477918691493
},
{
"acceleration": 0.007997045932085667,
"curvature": 0.004258764295659479,
"pose": {
"rotation": {
"radians": 0.08809308371987196
},
"translation": {
"x": 3.823422257988976,
"y": 0.5799574458486862
}
},
"time": 1.5269457399017272,
"velocity": 2.2965984292000217
},
{
"acceleration": 0.007507202480467318,
"curvature": 0.003963011128064726,
"pose": {
"rotation": {
"radians": 0.08837148409204933
},
"translation": {
"x": 3.8909080248567145,
"y": 0.5859274826099696
}
},
"time": 1.5564440786893667,
"velocity": 2.2968343287702266
},
{
"acceleration": 0.007077259375430459,
"curvature": 0.0036838070515027694,
"pose": {
"rotation": {
"radians": 0.0886319598234437
},
"translation": {
"x": 3.9587933211215813,
"y": 0.5919512919099867
}
},
"time": 1.5861147992012765,
"velocity": 2.297057072876851
},
{
"acceleration": 0.006701644678729044,
"curvature": 0.003419321343743809,
"pose": {
"rotation": {
"radians": 0.08887515848113539
},
"translation": {
"x": 4.027024440115905,
"y": 0.5980231014291881
}
},
"time": 1.6159345203375197,
"velocity": 2.297268114777835
},
{
"acceleration": 0.006375641737241831,
"curvature": 0.0031678651620524203,
"pose": {
"rotation": {
"radians": 0.08910166504083156
},
"translation": {
"x": 4.095547063881986,
"y": 0.6041370674102682
}
},
"time": 1.6458795836744622,
"velocity": 2.2974687959522013
},
{
"acceleration": 0.006095294578653666,
"curvature": 0.0029278716935694188,
"pose": {
"rotation": {
"radians": 0.0893120050871014
},
"translation": {
"x": 4.164306345620662,
"y": 0.6102872835878834
}
},
"time": 1.675926090027462,
"velocity": 2.297660361712164
},
{
"acceleration": 0.00585733069851637,
"curvature": 0.0026978781007684187,
"pose": {
"rotation": {
"radians": 0.08950664761274275
},
"translation": {
"x": 4.233246992139881,
"y": 0.6164677901183753
}
},
"time": 1.706049935951367,
"velocity": 2.297843975426912
},
{
"acceleration": 0.0056590992163822905,
"curvature": 0.0024765089580493873,
"pose": {
"rotation": {
"radians": 0.08968600743826989
},
"translation": {
"x": 4.302313346303277,
"y": 0.6226725825094848
}
},
"time": 1.7362268501823581,
"velocity": 2.2980207315930237
},
{
"acceleration": 0.005498522828198922,
"curvature": 0.0022624609028969334,
"pose": {
"rotation": {
"radians": 0.08985044726915846
},
"translation": {
"x": 4.371449469478735,
"y": 0.6288956205500762
}
},
"time": 1.7664324300238994,
"velocity": 2.2981916679662353
},
{
"acceleration": 0.005374062385697927,
"curvature": 0.0020544882466521173,
"pose": {
"rotation": {
"radians": 0.09000027940517948
},
"translation": {
"x": 4.440599223986958,
"y": 0.6351308372398545
}
},
"time": 1.7966421776786303,
"velocity": 2.298357776953349
},
{
"acceleration": 0.005284693305766755,
"curvature": 0.0018513893061727115,
"pose": {
"rotation": {
"radians": 0.0901357671128822
},
"translation": {
"x": 4.509706355550047,
"y": 0.6413721477190863
}
},
"time": 1.8268315365288963,
"velocity": 2.2985200164511945
},
{
"acceleration": 0.005229893363697062,
"curvature": 0.0016519932287274905,
"pose": {
"rotation": {
"radians": 0.09025712566901949
},
"translation": {
"x": 4.578714575740065,
"y": 0.6476134581983182
}
},
"time": 1.8569759273662094,
"velocity": 2.298679320311659
},
{
"acceleration": 0.005209641771904685,
"curvature": 0.0014551470885054334,
"pose": {
"rotation": {
"radians": 0.0903645230794104
},
"translation": {
"x": 4.647567644427607,
"y": 0.6538486748880965
}
},
"time": 1.8870507845710698,
"velocity": 2.2988366086077687
},
{
"acceleration": 0.005224429798305128,
"curvature": 0.001259703034094765,
"pose": {
"rotation": {
"radians": 0.09045808047438532
},
"translation": {
"x": 4.716209452230379,
"y": 0.6600717129286879
}
},
"time": 1.9170315922431638,
"velocity": 2.2989927978757727
},
{
"acceleration": 0.005275283553606018,
"curvature": 0.0010645052620522472,
"pose": {
"rotation": {
"radians": 0.09053787217849117
},
"translation": {
"x": 4.7845841029617535,
"y": 0.6662765053197974
}
},
"time": 1.946893920281753,
"velocity": 2.2991488115122243
},
{
"acceleration": 0.005363799991650423,
"curvature": 0.0008683765819232048,
"pose": {
"rotation": {
"radians": 0.09060392544852607
},
"translation": {
"x": 4.852635996079355,
"y": 0.6724570118502893
}
},
"time": 1.9766134604152703,
"velocity": 2.2993055905135114
},
{
"acceleration": 0.00549219763482413,
"curvature": 0.0006701043222941986,
"pose": {
"rotation": {
"radians": 0.09065621987015401
},
"translation": {
"x": 4.920309909133624,
"y": 0.6786072280279045
}
},
"time": 2.006166062178992,
"velocity": 2.299464104758605
},
{
"acceleration": 0.005663384087685716,
"curvature": 0.0004684253049741363,
"pose": {
"rotation": {
"radians": 0.09069468639926061
},
"translation": {
"x": 4.9875510802163845,
"y": 0.6847211940089846
}
},
"time": 2.035527768838635,
"velocity": 2.2996253650544753
},
{
"acceleration": 0.00588104305691668,
"curvature": 0.0002620095842712259,
"pose": {
"rotation": {
"radians": 0.0907192060297989
},
"translation": {
"x": 5.05430529040942,
"y": 0.690793003528186
}
},
"time": 2.0646748532569736,
"velocity": 2.2997904361885726
},
{
"acceleration": -0.003387941123748131,
"curvature": 4.944260933757988e-05,
"pose": {
"rotation": {
"radians": 0.09072960806503377
},
"translation": {
"x": 5.120518946233041,
"y": 0.6968168128282031
}
},
"time": 2.093583853700432,
"velocity": 2.299960451264913
},
{
"acceleration": -0.006471224286088504,
"curvature": -0.00017079458187109476,
"pose": {
"rotation": {
"radians": 0.09072566796376193
},
"translation": {
"x": 5.186139162094658,
"y": 0.7027868495894865
}
},
"time": 2.1222333113171974,
"velocity": 2.29986338858928
},
{
"acceleration": -0.006856389367227609,
"curvature": -0.00040034759032198943,
"pose": {
"rotation": {
"radians": 0.09070710472713689
},
"translation": {
"x": 5.2511138427373485,
"y": 0.7086974218599629
}
},
"time": 2.150602633437528,
"velocity": 2.299679804342995
},
{
"acceleration": -0.007579156367070184,
"curvature": -0.0006410138354019532,
"pose": {
"rotation": {
"radians": 0.09067357778506732
},
"translation": {
"x": 5.315391765688429,
"y": 0.7145429269847536
}
},
"time": 2.1786699646012915,
"velocity": 2.2994873637920374
},
{
"acceleration": -0.008842951732316778,
"curvature": -0.001163811661153689,
"pose": {
"rotation": {
"radians": 0.0905599500663376
},
"translation": {
"x": 5.441657307237654,
"y": 0.7260168252420653
}
},
"time": 2.233811522508358,
"velocity": 2.299069437302336
},
{
"acceleration": -0.010567203821507144,
"curvature": -0.0017578117504236195,
"pose": {
"rotation": {
"radians": 0.09038071394473078
},
"translation": {
"x": 5.564546595691343,
"y": 0.7371658483956525
}
},
"time": 2.287488341434249,
"velocity": 2.29859477578343
},
{
"acceleration": -1.3031319128529804,
"curvature": -0.0024464420784911347,
"pose": {
"rotation": {
"radians": 0.09013054161807636
},
"translation": {
"x": 5.683689681254851,
"y": 0.747949300736928
}
},
"time": 2.339539448082588,
"velocity": 2.298044741130342
},
{
"acceleration": -2.0,
"curvature": -0.003259775226146846,
"pose": {
"rotation": {
"radians": 0.08980262224876004
},
"translation": {
"x": 5.798738493744127,
"y": 0.758328772565509
}
},
"time": 2.390544158817395,
"velocity": 2.2315788748659804
},
{
"acceleration": -2.000000000000004,
"curvature": -0.004237091709329011,
"pose": {
"rotation": {
"radians": 0.08938836642285693
},
"translation": {
"x": 5.90936948093999,
"y": 0.7682684259402475
}
},
"time": 2.441481745370387,
"velocity": 2.129703701759996
},
{
"acceleration": -2.0,
"curvature": -0.005430503668009858,
"pose": {
"rotation": {
"radians": 0.0888770211507722
},
"translation": {
"x": 6.015286246942363,
"y": 0.7777352804302495
}
},
"time": 2.492642092105068,
"velocity": 2.027383008290634
},
{
"acceleration": -2.0,
"curvature": -0.006910146800722527,
"pose": {
"rotation": {
"radians": 0.08825516849034643
},
"translation": {
"x": 6.116222190524551,
"y": 0.7866994988659091
}
},
"time": 2.543921395897302,
"velocity": 1.924824400706166
},
{
"acceleration": -2.0,
"curvature": -0.008771713203659595,
"pose": {
"rotation": {
"radians": 0.08750607165675237
},
"translation": {
"x": 6.211943143487474,
"y": 0.7951346730899251
}
},
"time": 2.595210473579911,
"velocity": 1.8222462453409476
},
{
"acceleration": -2.0,
"curvature": -0.01114751104505112,
"pose": {
"rotation": {
"radians": 0.08660882030041608
},
"translation": {
"x": 6.302250009013953,
"y": 0.8030181097083346
}
},
"time": 2.646394624231591,
"velocity": 1.7198779440375873
},
{
"acceleration": -1.9999999999999971,
"curvature": -0.014222883510585295,
"pose": {
"rotation": {
"radians": 0.08553721087024721
},
"translation": {
"x": 6.386981400022934,
"y": 0.8103311158415343
}
},
"time": 2.6973535938705484,
"velocity": 1.6179600047596727
},
{
"acceleration": -2.000000000000003,
"curvature": -0.01826082751536627,
"pose": {
"rotation": {
"radians": 0.08425827843909085
},
"translation": {
"x": 6.466016277523783,
"y": 0.8170592848753078
}
},
"time": 2.747961720324268,
"velocity": 1.5167437518522342
},
{
"acceleration": -2.0,
"curvature": -0.023639203890498322,
"pose": {
"rotation": {
"radians": 0.08273037424229696
},
"translation": {
"x": 6.539276588970504,
"y": 0.8231927822118532
}
},
"time": 2.7980883810380806,
"velocity": 1.416490430424609
},
{
"acceleration": -1.9999999999999982,
"curvature": -0.03090724224920238,
"pose": {
"rotation": {
"radians": 0.08090066336689536
},
"translation": {
"x": 6.606729906616019,
"y": 0.8287266310208015
}
},
"time": 2.847598937759968,
"velocity": 1.317469316980834
},
{
"acceleration": -2.0,
"curvature": -0.040871244526288056,
"pose": {
"rotation": {
"radians": 0.07870191350865394
},
"translation": {
"x": 6.668392065866426,
"y": 0.8336609979902541
}
},
"time": 2.8963564854980746,
"velocity": 1.2199542215046213
},
{
"acceleration": -2.0000000000000004,
"curvature": -0.07422656741222966,
"pose": {
"rotation": {
"radians": 0.07283168456357675
},
"translation": {
"x": 6.774663396697672,
"y": 0.8417593852615344
}
},
"time": 2.991073833185822,
"velocity": 1.0305195261291258
},
{
"acceleration": -2.0000000000000004,
"curvature": -0.14163333161893926,
"pose": {
"rotation": {
"radians": 0.06413071557852484
},
"translation": {
"x": 6.859282785238131,
"y": 0.8476030064387432
}
},
"time": 3.0812786570529647,
"velocity": 0.8501098783948409
},
{
"acceleration": -2.0,
"curvature": -0.5013094664226355,
"pose": {
"rotation": {
"radians": 0.032733643992708415
},
"translation": {
"x": 6.973124303494268,
"y": 0.8534982660013206
}
},
"time": 3.248113452039746,
"velocity": 0.5164402884212783
},
{
"acceleration": -2.0,
"curvature": 0.0,
"pose": {
"rotation": {
"radians": 0.0
},
"translation": {
"x": 7.039795245340981,
"y": 0.8544435557946857
}
},
"time": 3.506333596250385,
"velocity": 0.0
}
]